  {
    "data": [
    {
    "id": "1",
    "name": "In Rainbows",
    "band": {
    "id": "1",
    "name": "Radiohead"
    },
    "year": 2007,
    "label": {
    "id": "SR",
    "name": "Self-released"
    },
    "genre": {
    "id": "AR",
    "description": "Alternative rock"
    }
  },
    {"id": "2",
    "name": "The Dark Side of the Moon",
    "band": {
    "id": "2",
    "name": "Pink Floyd"
    },
    "year": 1973,
    "label": {
    "id": "OR",
    "name": "On-released"
    },
    "genre": {
    "id": "POP",
    "description": "Popular Music"
    }
  },
    {
      "id": "3",
      "name": "Worlds Apart",
      "band": {
      "id": "3",
      "name": "...And You Will Know Us by the Trail of Dead"
      },
      "year": 2005,
      "label": {
      "id": "SR",
      "name": "Self-released"
      },
      "genre": {
      "id": "RAP",
      "description": "Rap Music"
      }
    }
  ]
}

