{
  "data": {
  "id": "10",
  "name": "The Suburbs",
  "band": {
  "id": "10",
  "name": "Arcade Fire"
  },
  "year": 2010,
  "label": {
  "id": "MR",
  "name": "Mercury Records"
  },
  "genre": {
  "id": "ID",
  "description": "Indie rock"
  }
  }
  }